{
    "toRocket": [
        [17.40,5.64, 90,14], 
        [24.56,16.819, 28.77,25]
    ],
    "toRefill": [
        [24.56,16.5519, -151.23,15],
        [24.75,1.789, 270,35] 
    ],
    "loadToRocket": [
        [2.447,1.889, 90,20],
        [3.4,15.658, 118.77,20]
    ],
    "backToStation": [
        [2.38,16.44, -61.23,10],
        [9.56,7.64, -90,10],
        [9.56,5.64, -90,10]
    ]
}