{
    "toFarRocket": [
        [9.56,5.64, 90,15],
        [2.38,21.72, -118.77, 20]
    ],
    "backToStation": [
        [2.38,21.72, 61.28,20],
        [4,17, -90,20],
        [2.04,0.95, -90,28]
    ],
    "toNear": [
        [1.54,1, 90,20],
        [2.04,16.766, 118.77,20]
    ]
}